date,O-Brand,T-Brand,R-Brand,I-Brand,U-Brand,total
"2018-05-01 00:00:00",10633.26,22705.73,32102.45,8300.45,26988.74,430271.9832
"2018-05-02 00:00:00",11033.44,40358.43,11695.52,5498.19,25959.64,450780.0988
"2018-05-03 00:00:00",8046.55,779.50,40388.38,10347.33,33550.20,477284.7568
"2018-05-04 00:00:00",599.71,20887.59,39803.43,34798.65,33693.12,503902.3216
"2018-05-05 00:00:00",30249.32,39452.33,8655.04,3754.34,37615.03,533618.1953
"2018-05-06 00:00:00",2772.67,1285.80,26811.43,32438.33,38222.83,563814.231
"2018-05-07 00:00:00",32754.36,26200.78,9933.64,5372.69,9611.73,571407.4977
